Using hydroscoper to get stations’ and time-series’ data
…
Finally, we will create a tidy data frame with the stations values:

stations <- tibble(
  "station_id" = as.numeric(kyy_data$stations$id),
  "name" = as.character(kyy_data$stations$name),
  "water_basin" = as.character(wbas_names$name),
  "water_division" = as.character(wd_names$name),
  "owner" = as.character(own_names$name),
  "longitude" = as.numeric(coords$long),
  "latitude" = as.numeric(coords$lat),
  "altitude" = as.numeric(kyy_data$stations$altitude)
)
stations
#> # A tibble: 425 x 8
#>    station_id name                  water_~ water~ owner long~ lati~ alti~
#>         <dbl> <chr>                 <chr>   <chr>  <chr> <dbl> <dbl> <dbl>
#>  1     501062 Peirama               ALPHEI~ GR01   min_~  22.4  39.1    NA
#>  2     200251 ABAS                  ALPHEI~ GR01   min_~  25.9  40.9   114
#>  3     200280 AG. BASILEIOS         ALPHEI~ GR01   min_~  24.5  35.2   299
#>  4     501032 AG. BASILEIOS         ALPHEI~ GR01   min_~  NA    NA      NA
#>  5     200171 AG. BLASIOS           ALPHEI~ GR01   min_~  21.5  38.8   852
#>  6     501054 AG. GEORGIOS          ALPHEI~ GR01   min_~  24.1  35.4   850
#>  7     200292 AG. GEORGIOS          ALPHEI~ GR01   min_~  25.5  35.2   836
#>  8     200348 AG. DEMETRIOS PIERIAS ALPHEI~ GR01   min_~  22.2  40.2   808
#>  9     200065 AG. THEODOROI         ALPHEI~ GR01   min_~  20.9  39.4   698
#> 10     200018 AGIA TRIADA           ALPHEI~ GR01   min_~  22.9  38.3   400
#> # ... with 415 more rows
…
# translate names
var_names$descr <- hydro_translate(var_names$descr, "variable")
ts_names$descr <- hydro_translate(ts_names$descr, "timestep")

timeseries <- tibble(
  "timeser_id" = as.numeric(kyy_data$timeseries$id),
  "station_id" = as.numeric(kyy_data$timeseries$gentity),
  "variable" = as.character(var_names$descr),
  "timestep" = as.character(ts_names$descr),
  "units" = as.character(ts_units$symbol),
  "start_date" = as.character(kyy_data$timeseries$start_date_utc),
  "end_date" = as.character(kyy_data$timeseries$end_date_utc)
)
timeseries
#> # A tibble: 1,613 x 7
#>    timeser_id station_id variable   timestep   units start_date end_date  
#>         <dbl>      <dbl> <chr>      <chr>      <chr> <chr>      <chr>     
#>  1        913     200251 flow_gauge 5_minutes  °     1960-11-0~ 1997-03-3~
#>  2        914     200251 flow_gauge 5_minutes  °     1967-01-0~ 1997-03-3~
#>  3        916     200252 flow_gauge 5_minutes  °     1960-11-0~ 1997-03-3~
#>  4        917     200252 flow_gauge 5_minutes  °     1967-01-0~ 1997-03-3~
#>  5        919     200253 flow_gauge 10_minutes °     1962-07-0~ 1997-03-3~
#>  6        920     200253 flow_gauge 10_minutes °     1967-01-0~ 1997-03-3~
#>  7        922     200254 flow_gauge 10_minutes °     1961-04-0~ 1997-03-3~
#>  8        923     200254 flow_gauge 10_minutes °     1967-01-0~ 1997-03-3~
#>  9        711     200188 flow_gauge 10_minutes °     1963-12-0~ 2013-12-3~
#> 10        925     200255 flow_gauge 30_minutes °     1975-01-0~ 1997-03-3~
#> # ... with 1,603 more rows
