Interface to to the Greek National Data Bank for Hydrometeorological Information • hydroscoper
…
Example

This is a minimal example which shows how to get the station’s 200200 precipitation time series 56 from the kyy sub-domain.

Load libraries:

library(hydroscoper)
library(tibble)
library(ggplot2)

We will use the package’s data stations and timeseries, to reduce the time needed with data munging. We can subset the station’s data for the kyy sub-domain with:

ts_raw <- get_data(subdomain = "kyy", time_id = 56)
ts_raw
#> # A tibble: 147,519 x 3
#>    date                value comment
#>    <dttm>              <dbl> <chr>  
#>  1 1985-05-06 08:00:00    0. 1      
#>  2 1985-05-06 08:30:00    0. 1      
#>  3 1985-05-06 09:00:00    0. 1      
#>  4 1985-05-06 09:30:00    0. 1      
#>  5 1985-05-06 10:00:00    0. 1      
#>  6 1985-05-06 10:30:00    0. 1      
#>  7 1985-05-06 11:00:00    0. 1      
#>  8 1985-05-06 11:30:00    0. 1      
#>  9 1985-05-06 12:00:00    0. 1      
#> 10 1985-05-06 12:30:00    0. 1      
#> # ... with 147,509 more rows
…
