Getting Hydroscope’s data • hydroscoper
…
  data.frame(station_id = as.integer(res$id),
             name = as.character(res$name),
             water_basin = res$water_basin_name,
             water_division = res$water_division_name,
             owner = res$owner_name,
             longitude = as.numeric(coords$long),
             latitude = as.numeric(coords$lat),
             altitude = as.numeric(res$altitude),
             subdomain = rep(id, nrow(res)),
             stringsAsFactors = FALSE)

})
stations <- as_tibble(stations)
stations
#> # A tibble: 2,322 x 9
#>    station_id name       water_ba~ water_~ owner   long~ lati~ alti~ subd~
#>         <int> <chr>      <chr>     <chr>   <chr>   <dbl> <dbl> <dbl> <chr>
#>  1     501032 AG. BASIL~ "KOURTAL~ GR13    min_ag~  NA    NA      NA kyy  
#>  2     200246 GEPH. KOK~ "ALPHEIO~ GR01    min_en~  22.0  37.5   318 kyy  
#>  3     200237 TROPAIA    "ALPHEIO~ GR01    min_en~  22.0  37.7   728 kyy  
#>  4     200231 BYTINA     "ALPHEIO~ GR01    min_en~  22.2  37.7  1011 kyy  
#>  5     200200 LYKOURIA   "ALPHEIO~ GR01    min_en~  22.2  37.9   758 kyy  
#>  6     200236 MEGALOPOLE "ALPHEIO~ GR01    min_en~  22.1  37.4   429 kyy  
#>  7     200244 ODOG. AG.~ "REMA CH~ GR01    min_en~  21.8  37.0   182 kyy  
#>  8     200204 TRIPOTAMA  "ALPHEIO~ GR01    min_en~  21.9  37.9   570 kyy  
#>  9     200198 KASTELLIO  "ALPHEIO~ GR01    min_en~  22.0  37.9   792 kyy  
#> 10     200239 PERDIKONE~ "ALPHEIO~ GR01    min_en~  22.0  37.7   837 kyy  
#> # ... with 2,312 more rows
…
  data.frame(
    "timeser_id" = as.integer(res$id),
    "station_id" = as.integer(res$gentity),
    "variable" = as.character(res$variable_name),
    "timestep" = as.character(res$time_step_name),
    "units" = as.character(res$unit_of_measurement_name),
    "start_date" = as.character(res$start_date_utc),
    "end_date" = as.character(res$end_date_utc),
    "subdomain" = rep(id, nrow(res)), 
    stringsAsFactors = FALSE)
})
timeseries <- as.tibble(timeseries)
timeseries
#> # A tibble: 10,804 x 8
#>    timeser_id station_id variable        timestep units start~ end_~ subd~
#>         <int>      <int> <chr>           <chr>    <chr> <chr>  <chr> <chr>
#>  1       2248     501049 temperature_max <NA>     °     2009-~ 2010~ kyy  
#>  2        430     200103 wind_direction  <NA>     °     1950-~ 1997~ kyy  
#>  3        905     200247 wind_direction  <NA>     °     1967-~ 1997~ kyy  
#>  4       2243     501058 temperature_max <NA>     °     1999-~ 2010~ kyy  
#>  5        438     200105 wind_direction  <NA>     °     1950-~ 1997~ kyy  
#>  6        553     200135 wind_direction  <NA>     °     1964-~ 1997~ kyy  
#>  7        966     200265 wind_direction  <NA>     °     1967-~ 1997~ kyy  
#>  8        775     200203 wind_direction  <NA>     °     1964-~ 1997~ kyy  
#>  9       2245     501046 temperature_max <NA>     °     2007-~ 2010~ kyy  
#> 10        247     200034 wind_direction  <NA>     °     1969-~ 1997~ kyy  
#> # ... with 10,794 more rows
…
