An introduction to `hydroscoper` • hydroscoper
…
We will use the package’s data stations and
timeseries, to reduce the time needed with data munging. We
can subset the station’s data for the kyy sub-domain
with:

# load data
data("stations")

# subset stations data
kyy_stations <- subset(stations, subdomain == "kyy")

# view kyy stations
kyy_stations
#> # A tibble: 425 × 9
#>    station_id name  water_basin water_division owner longitude latitude altitude
#>         <int> <chr> <chr>       <chr>          <chr>     <dbl>    <dbl>    <dbl>
#>  1     501032 AG. … "KOURTALIO… GR13           min_…      NA       NA        NA 
#>  2     200246 GEPH… "ALPHEIOS … GR01           min_…      22.0     37.5     318 
#>  3     200237 TROP… "ALPHEIOS … GR01           min_…      22.0     37.7     728.
#>  4     200231 BYTI… "ALPHEIOS … GR01           min_…      22.2     37.7    1011.
#>  5     200200 LYKO… "ALPHEIOS … GR01           min_…      22.2     37.9     758.
#>  6     200236 MEGA… "ALPHEIOS … GR01           min_…      22.1     37.4     429.
#>  7     200244 ODOG… "REMA CHOR… GR01           min_…      21.8     37.0     182.
#>  8     200204 TRIP… "ALPHEIOS … GR01           min_…      21.9     37.9     570.
#>  9     200198 KAST… "ALPHEIOS … GR01           min_…      22.0     37.9     792.
#> 10     200239 PERD… "ALPHEIOS … GR01           min_…      22.0     37.7     837.
#> # ℹ 415 more rows
#> # ℹ 1 more variable: subdomain <chr>
…
